module bitbucket.org/vshih/clouddiff-helper

go 1.18

require (
	github.com/virtao/GoEndian v0.0.0-20140331034613-586fa83c856a // indirect
	golang.org/x/sys v0.0.0-20220408201424-a24fb2fb8a0f // indirect
)
